[
    {
        "id":1,
        "tollno":12345,
        "vehicletype":"heavy motor",
        "location":"Main gate",
        "country":"India",
        "charges":"$10",
        "img":"./location"
    },
    {
        "id":2,
        "tollno":123123,
        "vehicletype":"light motor",
        "location":"Highway",
        "country":"India",
        "charges":"$10",
        "img":"./location"
    },{
        "id":3,
        "tollno":32123,
        "vehicletype":"heavy motor",
        "location":"Satara",
        "country":"India",
        "charges":"$10",
        "img":"./location"
    }
]
